^D:\FACULTATE\LICENTA\MINIHVTOGO\TEMP\X64\DEBUG\MINIHVEX15\ACPI_INTERFACE.OBJ|D:\FACULTATE\LICENTA\MINIHVTOGO\TEMP\X64\DEBUG\MINIHVEX15\ACPI_OSL.OBJ|D:\FACULTATE\LICENTA\MINIHVTOGO\TEMP\X64\DEBUG\MINIHVEX15\APIC.OBJ|D:\FACULTATE\LICENTA\MINIHVTOGO\TEMP\X64\DEBUG\MINIHVEX15\CHECK_INPUT.OBJ|D:\FACULTATE\LICENTA\MINIHVTOGO\TEMP\X64\DEBUG\MINIHVEX15\CPUMU.OBJ|D:\FACULTATE\LICENTA\MINIHVTOGO\TEMP\X64\DEBUG\MINIHVEX15\DISPLAY.OBJ|D:\FACULTATE\LICENTA\MINIHVTOGO\TEMP\X64\DEBUG\MINIHVEX15\DMP_APIC.OBJ|D:\FACULTATE\LICENTA\MINIHVTOGO\TEMP\X64\DEBUG\MINIHVEX15\DMP_CPU.OBJ|D:\FACULTATE\LICENTA\MINIHVTOGO\TEMP\X64\DEBUG\MINIHVEX15\DMP_MEMORY.OBJ|D:\FACULTATE\LICENTA\MINIHVTOGO\TEMP\X64\DEBUG\MINIHVEX15\DMP_MINIHV.OBJ|D:\FACULTATE\LICENTA\MINIHVTOGO\TEMP\X64\DEBUG\MINIHVEX15\DMP_MTRR.OBJ|D:\FACULTATE\LICENTA\MINIHVTOGO\TEMP\X64\DEBUG\MINIHVEX15\DMP_MULTIBOOT.OBJ|D:\FACULTATE\LICENTA\MINIHVTOGO\TEMP\X64\DEBUG\MINIHVEX15\DMP_PCI.OBJ|D:\FACULTATE\LICENTA\MINIHVTOGO\TEMP\X64\DEBUG\MINIHVEX15\DMP_VMCS.OBJ|D:\FACULTATE\LICENTA\MINIHVTOGO\TEMP\X64\DEBUG\MINIHVEX15\EPT.OBJ|D:\FACULTATE\LICENTA\MINIHVTOGO\TEMP\X64\DEBUG\MINIHVEX15\EVENT.OBJ|D:\FACULTATE\LICENTA\MINIHVTOGO\TEMP\X64\DEBUG\MINIHVEX15\EXPORTS.OBJ|D:\FACULTATE\LICENTA\MINIHVTOGO\TEMP\X64\DEBUG\MINIHVEX15\HEAP.OBJ|D:\FACULTATE\LICENTA\MINIHVTOGO\TEMP\X64\DEBUG\MINIHVEX15\HV_ASSERT.OBJ|D:\FACULTATE\LICENTA\MINIHVTOGO\TEMP\X64\DEBUG\MINIHVEX15\IDT.OBJ|D:\FACULTATE\LICENTA\MINIHVTOGO\TEMP\X64\DEBUG\MINIHVEX15\IDT_HANDLERS.OBJ|D:\FACULTATE\LICENTA\MINIHVTOGO\TEMP\X64\DEBUG\MINIHVEX15\INIT64.OBJ|D:\FACULTATE\LICENTA\MINIHVTOGO\TEMP\X64\DEBUG\MINIHVEX15\INIT_ASM.OBJ|D:\FACULTATE\LICENTA\MINIHVTOGO\TEMP\X64\DEBUG\MINIHVEX15\INT15_MEMORY.OBJ|D:\FACULTATE\LICENTA\MINIHVTOGO\TEMP\X64\DEBUG\MINIHVEX15\INTRO.OBJ|D:\FACULTATE\LICENTA\MINIHVTOGO\TEMP\X64\DEBUG\MINIHVEX15\IPC.OBJ|D:\FACULTATE\LICENTA\MINIHVTOGO\TEMP\X64\DEBUG\MINIHVEX15\IPC_HANDLER.OBJ|D:\FACULTATE\LICENTA\MINIHVTOGO\TEMP\X64\DEBUG\MINIHVEX15\ISR.OBJ|D:\FACULTATE\LICENTA\MINIHVTOGO\TEMP\X64\DEBUG\MINIHVEX15\LIB.OBJ|D:\FACULTATE\LICENTA\MINIHVTOGO\TEMP\X64\DEBUG\MINIHVEX15\LOCK.OBJ|D:\FACULTATE\LICENTA\MINIHVTOGO\TEMP\X64\DEBUG\MINIHVEX15\LOWER_MEM.OBJ|D:\FACULTATE\LICENTA\MINIHVTOGO\TEMP\X64\DEBUG\MINIHVEX15\MEM_SEARCH.OBJ|D:\FACULTATE\LICENTA\MINIHVTOGO\TEMP\X64\DEBUG\MINIHVEX15\MODULE.OBJ|D:\FACULTATE\LICENTA\MINIHVTOGO\TEMP\X64\DEBUG\MINIHVEX15\MTRR.OBJ|D:\FACULTATE\LICENTA\MINIHVTOGO\TEMP\X64\DEBUG\MINIHVEX15\MZPE.OBJ|D:\FACULTATE\LICENTA\MINIHVTOGO\TEMP\X64\DEBUG\MINIHVEX15\PAGING_TABLES.OBJ|D:\FACULTATE\LICENTA\MINIHVTOGO\TEMP\X64\DEBUG\MINIHVEX15\PCI.OBJ|D:\FACULTATE\LICENTA\MINIHVTOGO\TEMP\X64\DEBUG\MINIHVEX15\PIT.OBJ|D:\FACULTATE\LICENTA\MINIHVTOGO\TEMP\X64\DEBUG\MINIHVEX15\PROCESS.OBJ|D:\FACULTATE\LICENTA\MINIHVTOGO\TEMP\X64\DEBUG\MINIHVEX15\RING_BUFFER.OBJ|D:\FACULTATE\LICENTA\MINIHVTOGO\TEMP\X64\DEBUG\MINIHVEX15\SEGMENT.OBJ|D:\FACULTATE\LICENTA\MINIHVTOGO\TEMP\X64\DEBUG\MINIHVEX15\SERIAL.OBJ|D:\FACULTATE\LICENTA\MINIHVTOGO\TEMP\X64\DEBUG\MINIHVEX15\TASK.OBJ|D:\FACULTATE\LICENTA\MINIHVTOGO\TEMP\X64\DEBUG\MINIHVEX15\TEST_COMM.OBJ|D:\FACULTATE\LICENTA\MINIHVTOGO\TEMP\X64\DEBUG\MINIHVEX15\TEST_HEAP.OBJ|D:\FACULTATE\LICENTA\MINIHVTOGO\TEMP\X64\DEBUG\MINIHVEX15\VMCALL.OBJ|D:\FACULTATE\LICENTA\MINIHVTOGO\TEMP\X64\DEBUG\MINIHVEX15\VMCS.OBJ|D:\FACULTATE\LICENTA\MINIHVTOGO\TEMP\X64\DEBUG\MINIHVEX15\VMEXIT.OBJ|D:\FACULTATE\LICENTA\MINIHVTOGO\TEMP\X64\DEBUG\MINIHVEX15\VMGUEST.OBJ|D:\FACULTATE\LICENTA\MINIHVTOGO\TEMP\X64\DEBUG\MINIHVEX15\VMMEMORY.OBJ|D:\FACULTATE\LICENTA\MINIHVTOGO\TEMP\X64\DEBUG\MINIHVEX15\VMX.OBJ|D:\FACULTATE\LICENTA\MINIHVTOGO\TEMP\X64\DEBUG\MINIHVEX15\VMX_CAPABILITY.OBJ|D:\FACULTATE\LICENTA\MINIHVTOGO\TEMP\X64\DEBUG\MINIHVEX15\VM_COND_EXIT.OBJ|D:\FACULTATE\LICENTA\MINIHVTOGO\TEMP\X64\DEBUG\MINIHVEX15\VM_OPS.OBJ|D:\FACULTATE\LICENTA\MINIHVTOGO\TEMP\X64\DEBUG\MINIHVEX15\WIN_COMMON.OBJ|D:\FACULTATE\LICENTA\MINIHVTOGO\TEMP\X64\DEBUG\MINIHVEX15\_INIT32.OBJ
D:\FACULTATE\LICENTA\MINIHVTOGO\BIN\X64\DEBUG\MINIHVEX15\MINIHVEX.BIN
D:\FACULTATE\LICENTA\MINIHVTOGO\BIN\X64\DEBUG\MINIHVEX15\MINIHVEX.MAP
D:\FACULTATE\LICENTA\MINIHVTOGO\BIN\X64\DEBUG\MINIHVEX15\MINIHVEX.PDB
