﻿  Assembling vmcall.yasm
  vmexit_dmp.c
  main.c
  Running Code Analysis for C/C++...
  Generating Code...
  GuestApplication.vcxproj -> D:\Facultate\Licenta\MiniHvToGo\src\..\bin\x64\Debug\MiniHVGuestApplication\MiniHVGuestApplication.exe
  GuestApplication.vcxproj -> D:\Facultate\Licenta\MiniHvToGo\src\..\bin\x64\Debug\MiniHVGuestApplication\MiniHVGuestApplication.pdb (Full PDB)
  "Project name: [MiniHVGuestApplication]"
  "Project dir: [D:\Facultate\Licenta\MiniHvToGo\src\]"
  "Platform name: [x64]"
  "Configuration name: [Debug]"
  "Solution name: [MiniHVGuestApplication]"
  "Target name: [MiniHVGuestApplication]"
  "Target extension: [.exe]"
  "Share path: []"
  D:\Facultate\Licenta\MiniHvToGo\src\..\bin\x64\Debug 
  "Full project path: [D:\Facultate\Licenta\MiniHvToGo\src\..\bin\x64\Debug\MiniHVGuestApplication]"
  About to save scripts
  Storing symbols to []
  "About to store [D:\Facultate\Licenta\MiniHvToGo\src\..\bin\x64\Debug\MiniHVGuestApplication\MiniHVGuestApplication.exe]"
  'add' is not recognized as an internal or external command,
  operable program or batch file.
  "About to store [D:\Facultate\Licenta\MiniHvToGo\src\..\bin\x64\Debug\MiniHVGuestApplication\MiniHVGuestApplication.pdb]"
  'add' is not recognized as an internal or external command,
  operable program or batch file.
  --INFO: build done!
