^D:\FACULTATE\LICENTA\MINIHVTOGO\BIN\X64\DEBUG\MINIHVGUESTDRIVER\MINIHVGUESTDRIVER\
C:\WINDOWS\MICROSOFT.NET\FRAMEWORK\V4.0.30319\CLR.DLL
C:\PROGRAM FILES (X86)\WINDOWS KITS\10\BIN\X86\INF2CAT.EXE
C:\WINDOWS\MICROSOFT.NET\FRAMEWORK\V4.0.30319\CONFIG\MACHINE.CONFIG
C:\WINDOWS\GLOBALIZATION\SORTING\SORTDEFAULT.NLS
C:\WINDOWS\ASSEMBLY\NATIVEIMAGES_V4.0.30319_32\MSCORLIB\4CDF4BB81EA1F14D4F505208F9DDBC23\MSCORLIB.NI.DLL.AUX
C:\WINDOWS\ASSEMBLY\NATIVEIMAGES_V4.0.30319_32\MSCORLIB\F06D35CDB58E63C8A25F1658F23FD20D\MSCORLIB.NI.DLL.AUX
C:\WINDOWS\ASSEMBLY\PUBPOL46.DAT
C:\PROGRAM FILES (X86)\WINDOWS KITS\10\BIN\X86\MICROSOFT.WHOS.WINQUAL.SUBMISSIONS.SUBMISSIONBUILDER.DLL
C:\PROGRAM FILES (X86)\WINDOWS KITS\10\BIN\X86\MICROSOFT.WHOS.SHARED.IO.CATALOGS.DLL
C:\WINDOWS\ASSEMBLY\NATIVEIMAGES_V4.0.30319_32\SYSTEM\6D712BF5F07CE74D9E2D31A443DEA9C2\SYSTEM.NI.DLL.AUX
C:\WINDOWS\ASSEMBLY\NATIVEIMAGES_V4.0.30319_32\SYSTEM.CORE\561BCB2835DC3D4DE610397AEBD07EDC\SYSTEM.CORE.NI.DLL.AUX
C:\WINDOWS\ASSEMBLY\NATIVEIMAGES_V4.0.30319_32\SYSTEM.XML\CFFF018936A7C6348CB7EA98D432343A\SYSTEM.XML.NI.DLL.AUX
C:\PROGRAM FILES (X86)\WINDOWS KITS\10\BIN\X86\MICROSOFT.WHOS.SHARED.IO.CABINETS.DLL
C:\PROGRAM FILES (X86)\WINDOWS KITS\10\BIN\X86\MICROSOFT.WHOS.XML.NONXMLDATAREADER.DLL
C:\PROGRAM FILES (X86)\WINDOWS KITS\10\BIN\X86\MICROSOFT.WHOS.SHARED.XML.INFREADER.DLL
D:\FACULTATE\LICENTA\MINIHVTOGO\BIN\X64\DEBUG\MINIHVGUESTDRIVER\MINIHVGUESTDRIVER\MINIHVGUESTDRIVER.INF
C:\PROGRAM FILES (X86)\WINDOWS KITS\10\BIN\X86\WINDOWSPROTECTEDFILES.XML
C:\WINDOWS\SYSTEM32\TZRES.DLL
C:\WINDOWS\SYSTEM32\EN-US\TZRES.DLL.MUI
D:\FACULTATE\LICENTA\MINIHVTOGO\BIN\X64\DEBUG\MINIHVGUESTDRIVER\MINIHVGUESTDRIVER\MINIHVGUESTDRIVER.CAT
