#Command: "C:\WINDOWS\system32\expand.exe" "d:\facultate\licenta\minihvtogo\bin\x64\debug\minihvguestdriver\minihvguestdriver\minihvguestdriver.sys" "C:\Users\Huseras Dorin\AppData\Local\Temp\WST\bbd4a0ef-4104-415f-9685-d3b9b2e12614\001"
^D:\FACULTATE\LICENTA\MINIHVTOGO\BIN\X64\DEBUG\MINIHVGUESTDRIVER\MINIHVGUESTDRIVER\
D:\FACULTATE\LICENTA\MINIHVTOGO\BIN\X64\DEBUG\MINIHVGUESTDRIVER\MINIHVGUESTDRIVER\MINIHVGUESTDRIVER.SYS
C:\WINDOWS\GLOBALIZATION\SORTING\SORTDEFAULT.NLS
