^D:\FACULTATE\LICENTA\MINIHVTOGO\BIN\X64\DEBUG\MINIHVGUESTDRIVER\MINIHVGUESTDRIVER.SYS
sign /ph /sha1 "3A61DD90445ED54BDB1D2C3FCF9F44C5D98C1EC9" 
^D:\FACULTATE\LICENTA\MINIHVTOGO\BIN\X64\DEBUG\MINIHVGUESTDRIVER\MINIHVGUESTDRIVER\MINIHVGUESTDRIVER.CAT
sign /ph /sha1 "3A61DD90445ED54BDB1D2C3FCF9F44C5D98C1EC9" 
