^D:\FACULTATE\LICENTA\MINIHVTOGO\BIN\X64\DEBUG\MINIHVGUESTDRIVER\MINIHVGUESTDRIVER.SYS
D:\FACULTATE\LICENTA\MINIHVTOGO\BIN\X64\DEBUG\MINIHVGUESTDRIVER\MINIHVGUESTDRIVER.SYS
^D:\FACULTATE\LICENTA\MINIHVTOGO\BIN\X64\DEBUG\MINIHVGUESTDRIVER\MINIHVGUESTDRIVER\MINIHVGUESTDRIVER.CAT
D:\FACULTATE\LICENTA\MINIHVTOGO\BIN\X64\DEBUG\MINIHVGUESTDRIVER\MINIHVGUESTDRIVER\MINIHVGUESTDRIVER.CAT
